Project 1: Exploratory Data Analysis
…
Using the out of state median tuition to arrange, it appears that the South region has the lower out of state tuition. Earlier I hypothesized that both the East and the West Coast regions would have higher tuition and it appears that the East and West coast out of state tuitions are higher than the other regions. It also appears that colleges with a higher hispanic student population appear to be in the West. This could be due to states like California’s large Hispanic population! The median for the propotion of women in the student population appears to be around 0.56 and 0.57 for all four regions. I would’ve expected that there be more colleges where men are compose most of the student body;however, this is false.

Visualizing

A correlation heatmap of the numeric variables.

cormat <- combined_final_wide %>% select_if(is.numeric) %>% cor(use = "pair")

tidycor <- cormat %>% as.data.frame %>% rownames_to_column("var1") %>% 
    pivot_longer(-1, names_to = "var2", values_to = "correlation")

tidycor

## # A tibble: 256 x 3
##    var1             var2                            correlation
##    <chr>            <chr>                                 <dbl>
##  1 in_state_tuition in_state_tuition                     1     
##  2 in_state_tuition in_state_total                       0.982 
##  3 in_state_tuition out_of_state_tuition                 0.945 
##  4 in_state_tuition out_of_state_total                   0.929 
##  5 in_state_tuition total_enrollment                    -0.173 
##  6 in_state_tuition Women                                0.0194
##  7 in_state_tuition American Indian / Alaska Native     -0.128 
##  8 in_state_tuition Asian                                0.161 
##  9 in_state_tuition Black                               -0.159 
## 10 in_state_tuition Hispanic                            -0.180 
## # … with 246 more rows
…
